{
    "name": "cacheable",
    "version": "0.0.1",
    "dependencies": {
        "requirejs": "ssh://git@bitbucket.uxserver.espial.com:7999/tpp/requirejs.git@develop",
        "jasmine": "ssh://git@bitbucket.uxserver.espial.com:7999/tpp/jasmine.git@develop",
        "blanket": "ssh://git@bitbucket.uxserver.espial.com:7999/tpp/blanket.git@develop",
        "defineclass": "ssh://git@bitbucket.uxserver.espial.com:7999/uxfp/defineclass.git@develop",
        "assertful": "ssh://git@bitbucket.uxserver.espial.com:7999/uxfp/assertful.git@develop",
        "error": "ssh://git@bitbucket.uxserver.espial.com:7999/uxfp/error.git@develop",
        "eventful": "ssh://git@bitbucket.uxserver.espial.com:7999/uxfp/eventful.git@develop",
        "logger": "ssh://git@bitbucket.uxserver.espial.com:7999/uxfp/logger.git@develop",
        "image": "ssh://git@bitbucket.uxserver.espial.com:7999/uxfp/image.git@develop",
        "texture": "ssh://git@bitbucket.uxserver.espial.com:7999/uxfp/texture.git@develop",
        "math": "ssh://git@bitbucket.uxserver.espial.com:7999/uxfp/math.git@develop"
    }
}
